{
    "request": {
        "url": "/concertoservices/v1/menus",
        "method": "GET"
    },
    "response": {
        "status": 200,
      "jsonBody": {
        "extendedStayHotel": false,
        "guestComplaintsAccess": true,
        "mainMenu": {
          "items": [
            {
              "name": "Reservations",
              "applCd": "hin",
              "link": "https://mgt-sso.tst.ihg.hotel.amadeus.com/#/bookingTool/availability",
              "pageId": 7300,
              "preIcon": "",
              "postIcon": "",
              "viewOnly": true,
              "hotelSelectorRequired": false,
              "linkType": "iframe",
              "corporate": false,
              "menuNm": "RESERVATIONS_MENU",
              "items": []
            },
            {
              "name": "Rates & Inventory",
              "applCd": "hin",
              "link": "https://mgt-sso.tst.ihg.hotel.amadeus.com/#/home",
              "pageId": 6110,
              "preIcon": "",
              "postIcon": "",
              "viewOnly": true,
              "hotelSelectorRequired": false,
              "linkType": "iframe",
              "corporate": false,
              "menuNm": "RATES_&_INVENTORY_MENU",
              "items": []
            },
            {
              "name": "Hotel Content",
              "applCd": "global",
              "link": "content",
              "pageId": 1,
              "preIcon": "",
              "postIcon": "",
              "viewOnly": true,
              "hotelSelectorRequired": false,
              "linkType": "internal",
              "corporate": false,
              "menuNm": "HOTEL_CONTENT",
              "items": [
                {
                  "header": {
                    "name": "Content",
                    "applCd": "global",
                    "link": "",
                    "pageId": null,
                    "preIcon": "",
                    "postIcon": "",
                    "viewOnly": null,
                    "hotelSelectorRequired": null,
                    "linkType": "",
                    "corporate": false,
                    "menuNm": "CONTENT"
                  },
                  "items": [
                    {
                      "name": "Catalog Overview",
                      "applCd": "hcm",
                      "link": "catalogOverview",
                      "pageId": 9153,
                      "preIcon": "",
                      "postIcon": "",
                      "viewOnly": false,
                      "hotelSelectorRequired": false,
                      "linkType": "internal",
                      "corporate": false,
                      "menuNm": "CONTENT_OVERVIEW"
                    },
                    {
                      "name": "Photo Management",
                      "applCd": "hcm",
                      "link": "photoManagement",
                      "pageId": 9151,
                      "preIcon": "",
                      "postIcon": "",
                      "viewOnly": false,
                      "hotelSelectorRequired": false,
                      "linkType": "internal",
                      "corporate": false,
                      "menuNm": "PHOTO_MANAGEMENT"
                    },
                    {
                      "name": "Catalog Reporting",
                      "applCd": "hcm",
                      "link": "catalogReporting",
                      "pageId": 9152,
                      "preIcon": "",
                      "postIcon": "",
                      "viewOnly": false,
                      "hotelSelectorRequired": false,
                      "linkType": "internal",
                      "corporate": false,
                      "menuNm": "CATALOG_REPORTING"
                    },
                    {
                      "name": "Content Explorer",
                      "applCd": "hcm",
                      "link": "content",
                      "pageId": 9150,
                      "preIcon": "",
                      "postIcon": "",
                      "viewOnly": false,
                      "hotelSelectorRequired": false,
                      "linkType": "internal",
                      "corporate": false,
                      "menuNm": "CONTENT_EXPLORER"
                    }
                  ]
                },
                {
                  "header": {
                    "name": "Inventory & Attribute Management",
                    "applCd": "rpcp",
                    "link": "",
                    "pageId": null,
                    "preIcon": "",
                    "postIcon": "",
                    "viewOnly": null,
                    "hotelSelectorRequired": null,
                    "linkType": "",
                    "corporate": false,
                    "menuNm": "RPCP_MENU"
                  },
                  "items": [
                    {
                      "name": "PMS File Upload",
                      "applCd": "rpcp",
                      "link": "pms-upload",
                      "pageId": 11001,
                      "preIcon": "",
                      "postIcon": "",
                      "viewOnly": false,
                      "hotelSelectorRequired": false,
                      "linkType": "internal",
                      "corporate": false,
                      "menuNm": "RPCP_PMS_FILE_UPLOAD_MENU"
                    },
                    {
                      "name": "Room Type Mapping",
                      "applCd": "rpcp",
                      "link": "rpcp-room-mapping",
                      "pageId": 11002,
                      "preIcon": "",
                      "postIcon": "",
                      "viewOnly": false,
                      "hotelSelectorRequired": false,
                      "linkType": "internal",
                      "corporate": false,
                      "menuNm": "RPCP_RM_TYPE_MAPPING_MENU"
                    },
                    {
                      "name": "Attribute Assignment",
                      "applCd": "rpcp",
                      "link": "assign-attribute",
                      "pageId": 11003,
                      "preIcon": "",
                      "postIcon": "",
                      "viewOnly": false,
                      "hotelSelectorRequired": false,
                      "linkType": "internal",
                      "corporate": false,
                      "menuNm": "RPCP_ATTR_ASSGN_MENU"
                    },
                    {
                      "name": "Inventory & Price Recommendation",
                      "applCd": "rpcp",
                      "link": "inventory-price-recommendation",
                      "pageId": 11004,
                      "preIcon": "",
                      "postIcon": "",
                      "viewOnly": false,
                      "hotelSelectorRequired": false,
                      "linkType": "internal",
                      "corporate": false,
                      "menuNm": "RPCP_INV_PRICE_RECOMM_MENU"
                    }
                  ]
                }
              ]
            },
            {
              "name": "Corporate Administration",
              "applCd": "global",
              "link": "corporate-administration",
              "pageId": 1,
              "preIcon": "",
              "postIcon": "",
              "viewOnly": true,
              "hotelSelectorRequired": false,
              "linkType": "internal",
              "corporate": true,
              "menuNm": "CORPORATE_ADMIN_MENU",
              "items": [
                {
                  "header": {
                    "name": "Corporate Administration",
                    "applCd": "global",
                    "link": "",
                    "pageId": null,
                    "preIcon": "",
                    "postIcon": "",
                    "viewOnly": null,
                    "hotelSelectorRequired": null,
                    "linkType": "",
                    "corporate": true,
                    "menuNm": "CORPORATE_ADMIN_SUB_HDR_MENU"
                  },
                  "items": [
                    {
                      "name": "Feedback Received",
                      "applCd": "hin",
                      "link": "feedback-received",
                      "pageId": 7200,
                      "preIcon": "",
                      "postIcon": "",
                      "viewOnly": true,
                      "hotelSelectorRequired": false,
                      "linkType": "internal",
                      "corporate": false,
                      "menuNm": "FEEDBACK_RECEIVED_MENU"
                    }
                  ]
                },
                {
                  "header": {
                    "name": "Inventory & Attribute Management",
                    "applCd": "rpcp",
                    "link": "",
                    "pageId": null,
                    "preIcon": "",
                    "postIcon": "",
                    "viewOnly": null,
                    "hotelSelectorRequired": null,
                    "linkType": "",
                    "corporate": false,
                    "menuNm": "RPCP_CORP_MENU"
                  },
                  "items": [
                    {
                      "name": "Manage Attribute Requests",
                      "applCd": "rpcp",
                      "link": "attribute-requests",
                      "pageId": 11008,
                      "preIcon": "",
                      "postIcon": "",
                      "viewOnly": false,
                      "hotelSelectorRequired": false,
                      "linkType": "internal",
                      "corporate": true,
                      "menuNm": "RPCP_MANAGAGE_ATTRIBUTE_REQUESTS"
                    }
                  ]
                }
              ]
            },
            {
              "name": "Guest",
              "applCd": "global",
              "link": "guest",
              "pageId": 1,
              "preIcon": "",
              "postIcon": "",
              "viewOnly": true,
              "hotelSelectorRequired": false,
              "linkType": "internal",
              "corporate": false,
              "menuNm": "GUEST",
              "items": [
                {
                  "header": {
                    "name": "Guest List",
                    "applCd": "global",
                    "link": "",
                    "pageId": null,
                    "preIcon": "",
                    "postIcon": "",
                    "viewOnly": null,
                    "hotelSelectorRequired": null,
                    "linkType": "",
                    "corporate": false,
                    "menuNm": "GUEST_LIST"
                  },
                  "items": [
                    {
                      "name": "Guest List Details",
                      "applCd": "global",
                      "link": "guest-list-details",
                      "pageId": 8150,
                      "preIcon": "",
                      "postIcon": "",
                      "viewOnly": true,
                      "hotelSelectorRequired": false,
                      "linkType": "internal",
                      "corporate": false,
                      "menuNm": "GUEST_LIST_DETAILS"
                    }
                  ]
                }
              ]
            },
            {
              "name": "Training & Help",
              "applCd": "global",
              "link": "training-help",
              "pageId": 1,
              "preIcon": "",
              "postIcon": "",
              "viewOnly": true,
              "hotelSelectorRequired": false,
              "linkType": "internal",
              "corporate": false,
              "menuNm": "TRAINING_&_HELP_MENU",
              "items": [
                {
                  "header": {
                    "name": "Training & Help",
                    "applCd": "hin",
                    "link": "",
                    "pageId": null,
                    "preIcon": "",
                    "postIcon": "",
                    "viewOnly": null,
                    "hotelSelectorRequired": null,
                    "linkType": "",
                    "corporate": false,
                    "menuNm": "TRAINING_&_HELP_SUBMENU_MENU"
                  },
                  "items": [
                    {
                      "name": "Help Documentation",
                      "applCd": "hin",
                      "link": "hin-help/Content/Hotel%20Interface%20Homepage.htm?cshid=1002",
                      "pageId": 7100,
                      "preIcon": "",
                      "postIcon": "",
                      "viewOnly": true,
                      "hotelSelectorRequired": false,
                      "linkType": "external",
                      "corporate": false,
                      "menuNm": "HELP_DOCUMENTATION_MENU"
                    },
                    {
                      "name": "IHG MyLearning",
                      "applCd": "hin",
                      "link": "https://mylearning.ihg.com",
                      "pageId": 6130,
                      "preIcon": "",
                      "postIcon": "",
                      "viewOnly": true,
                      "hotelSelectorRequired": false,
                      "linkType": "external",
                      "corporate": false,
                      "menuNm": "IHG_LEARNING_MENU"
                    }
                  ]
                },
                {
                  "header": {
                    "name": "Guide Me",
                    "applCd": "global",
                    "link": "",
                    "pageId": null,
                    "preIcon": "",
                    "postIcon": "",
                    "viewOnly": null,
                    "hotelSelectorRequired": null,
                    "linkType": "",
                    "corporate": false,
                    "menuNm": "GUIDE_ME_MENU"
                  },
                  "items": [
                    {
                      "name": "Guide Me Authoring",
                      "applCd": "global",
                      "link": "guide-me-authoring",
                      "pageId": 11011,
                      "preIcon": "",
                      "postIcon": "",
                      "viewOnly": true,
                      "hotelSelectorRequired": false,
                      "linkType": "internal",
                      "corporate": false,
                      "menuNm": "GUIDE_ME_AUTHORING"
                    },
                    {
                      "name": "The Basics",
                      "applCd": "global",
                      "link": "TheBasics",
                      "pageId": 7500,
                      "preIcon": "",
                      "postIcon": "",
                      "viewOnly": true,
                      "hotelSelectorRequired": false,
                      "linkType": "internal",
                      "corporate": false,
                      "menuNm": "THE_BASICS_MENU"
                    },
                    {
                      "name": "Loyalty & My Stay",
                      "applCd": "global",
                      "link": "Loyalty-MyStay",
                      "pageId": 7600,
                      "preIcon": "",
                      "postIcon": "",
                      "viewOnly": true,
                      "hotelSelectorRequired": false,
                      "linkType": "internal",
                      "corporate": false,
                      "menuNm": "LOYALTY_&_MY_STAY_MENU"
                    },
                    {
                      "name": "Arrivals & Enrollments",
                      "applCd": "global",
                      "link": "Arrivals-Enrollments",
                      "pageId": 7700,
                      "preIcon": "",
                      "postIcon": "",
                      "viewOnly": true,
                      "hotelSelectorRequired": false,
                      "linkType": "internal",
                      "corporate": false,
                      "menuNm": "ARRIVALS_&_ENROLLMENTS_MENU"
                    },
                    {
                      "name": " A New View for You",
                      "applCd": "global",
                      "link": "ANewViewForYou",
                      "pageId": 7800,
                      "preIcon": "",
                      "postIcon": "",
                      "viewOnly": true,
                      "hotelSelectorRequired": false,
                      "linkType": "internal",
                      "corporate": false,
                      "menuNm": "NEW_VIEW_FOR_YOU"
                    },
                    {
                      "name": "New Shit",
                      "applCd": "global",
                      "link": "guide-me-basics",
                      "pageId": 7900,
                      "preIcon": "",
                      "postIcon": "",
                      "viewOnly": true,
                      "hotelSelectorRequired": false,
                      "linkType": "internal",
                      "corporate": false,
                      "menuNm": "BLABLA"
                    }
                  ]
                }
              ]
            },
            {
              "name": "Guest Complaints",
              "applCd": "global",
              "link": "guestcomplaints",
              "pageId": 11010,
              "preIcon": "",
              "postIcon": "",
              "viewOnly": true,
              "hotelSelectorRequired": false,
              "linkType": "internal",
              "corporate": false,
              "menuNm": "Guest Complaints",
              "items": []
            }
          ]
        },
        "userMenu": {
          "group": [
            {
              "subGroup": [
                {
                  "name": "Report an Issue",
                  "applCd": "global",
                  "link": "support",
                  "pageId": 512,
                  "preIcon": "",
                  "postIcon": "",
                  "viewOnly": false,
                  "hotelSelectorRequired": false,
                  "linkType": "internal",
                  "corporate": false,
                  "menuNm": "REPORT_AN_ISSUE_MENU"
                },
                {
                  "name": "View Concerto System Status",
                  "applCd": "global",
                  "link": "service-now",
                  "pageId": 514,
                  "preIcon": "",
                  "postIcon": "",
                  "viewOnly": true,
                  "hotelSelectorRequired": false,
                  "linkType": "internal",
                  "corporate": false,
                  "menuNm": "VIEW_CONCERTO_SYSTEM_STATUS_MENU"
                },
                {
                  "name": "Sign Out",
                  "applCd": "global",
                  "link": "logout",
                  "pageId": 513,
                  "preIcon": "",
                  "postIcon": "",
                  "viewOnly": false,
                  "hotelSelectorRequired": false,
                  "linkType": "internal",
                  "corporate": false,
                  "menuNm": "SIGNOUT_MENU"
                },
                {
                  "name": "Change Language",
                  "applCd": "global",
                  "link": "language",
                  "pageId": 513,
                  "preIcon": "",
                  "postIcon": "",
                  "viewOnly": false,
                  "hotelSelectorRequired": false,
                  "linkType": "internal",
                  "corporate": false,
                  "menuNm": "CHANGE_LANGUAGE_MENU",
                  "items": [
                    {
                      "langName": "English",
                      "langCode": "en",
                      "selected": true
                    },
                    {
                      "langName": "Untranslated",
                      "langCode": "un",
                      "selected": false
                    },
                    {
                      "langName": "Chinese (Simplified)",
                      "langCode": "zh",
                      "selected": false
                    }
                  ]
                }
              ]
            }
          ]
        },
        "appLauncher": []
      }
    }
}

