{
  "request": {
    "url": "/concertoservices/v1/login",
    "method": "GET"
  },
  "response": {
    "status": 200,
    "jsonBody": {
      "user": {
        "userName": "jdoe",
        "securityId": "4f21ee9d73d5942c0f6bfc8fdb91c60e",
        "firstName": "John",
        "lastName": "Doe",
        "email": "john.doe@email.com",
        "phoneNumber": "7706042906",
        "lastLoginTime": 1471900753000,
        "currentLocationId": null,
        "corporateUser": true,
        "multipleHoteluser": true,
        "roles": [
          {
            "id": 5004,
            "name": "FRONT_DESK_MANAGEMENT",
            "description": "FRONT_DESK_MANAGEMENT",
            "functions": null
          },
          {
            "id": 5000,
            "name": "HOTEL_MANAGEMENT",
            "description": "HOTEL_MANAGEMENT",
            "functions": null
          }
        ],
        "hotels": null,
        "currentLocation": {
          "mnemonic": "ATLCP",
          "name": "Atlanta Crowne Plaza",
          "brandCode": "ICON",
          "brandName": "",
          "brandColor": "#821953",
          "brandImage": "crowne_plaza.png",
          "addressLine1": "3 ",
          "addressLine2": "Ravinia Drive",
          "city": "Atlanta",
          "state": "GA",
          "country": "US",
          "zipCode": "30046",
          "currencyCode": "USD",
          "regionId": null,
          "regionName": "",
          "regionDescription": "",
          "subRegionId": null,
          "subRegionName": "",
          "subRegionDescription": "",
          "managementTypeCode": "",
          "managementTypeName": "",
          "poEnabled": true,
          "tiersEnabled": false,
          "hpBindFlag": true,
          "collectDate": "2017-02-15"
        },
        "domainName": "AMER"
      },
      "rmsAppVersion": "1.0.0-SNAPSHOT",
      "homePageId": 999,
      "userLanguage": "en",
      "availableAppLanguages": [
        "en",
        "un"
      ]
    }
  }
}
