{
  "request": {
    "urlPattern": "\/fdkservices\/v1\/traces\/departments\/(.*)",
    "method": "GET"
  },
  "response": {
    "status": 200,
    "jsonBody": {
      "departments": [
        {
          "code": "ACC",
          "name": "Accounting"
        },
        {
          "code": "CON",
          "name": "Concierge / Bell Stand"
        },
        {
          "code": "GS",
          "name": "Guest Services"
        },
        {
          "code": "HSK",
          "name": "House Keeping"
        },
        {
          "code": "MGT",
          "name": "Management"
        },
        {
          "code": "MOB",
          "name": "Mobile Check-in"
        },
        {
          "code": "NA",
          "name": "Night Audit"
        },
        {
          "code": "*NOR1",
          "name": "NOR1 Interface Traces"
        },
        {
          "code": "PMS",
          "name": "Default Department"
        },
        {
          "code": "RES",
          "name": "Reservations"
        },
        {
          "code": "SAL",
          "name": "Sales"
        },
        {
          "code": "ZIF",
          "name": "CRS Information/Comments"
        },
        {
          "code": "ZSV",
          "name": "CRS Service Requests"
        },
        {
          "code": "ZWN",
          "name": "CRS Warning Trace"
        }
      ]
    }
  }
}
