{
  "request": {
    "urlPattern": "\/fdkservices\/v1\/prepareArrivals\/reservation\/(.*)",
    "method": "GET"
  },
  "response": {
    "status": 200,
    "jsonBody": {
      "reservationData": {
        "firstName": "TEST USER B",
        "lastName": "ANGELS",
        "reservationNumber": "21836327",
        "arrivalTime": "",
        "ihgRcNumber": "119200393",
        "ihgRcMembership": "spire",
        "vipCode": "Y",
        "companyName": "INTERCONTINENTAL HOTELS GROUP",
        "groupName": "",
        "arrival": "",
        "rateCategoryCode": "IKPCM",
        "roomTypeCode": "CSTN",
        "badges": [
          "spire"
        ],
        "heartBeatActions": null,
        "heartBeatComment": "",
        "heartBeatImprovement": "",
        "heartBeatActionInd": "",
        "assignedRoomNumber": "",
        "assignedRoomStatus": null,
        "numberOfNights": 2,
        "numberOfRooms": 1,
        "numberOfAdults": 1,
        "numberOfChildren": 1,
        "preferences": [
          "BALCONY",
          "ROOM NEAR ELEVATOR"
        ],
        "specialRequests": [
          "Need Extra Towels"
        ],
        "infoItems": [],
        "pmsReservationNumber": "18124",
        "pmsUniqueNumber": "111",
        "inspected": true,
        "prepStatus": "READY",
        "tasks": [
          {
            "traceId": 7410,
            "traceText": "Need Extra Towels",
            "departmentCode": "ZIF",
            "departmentName": "CRS Information/Comments",
            "traceTimestamp": "",
            "isResolved": false
          },
          {
            "traceId": 7411,
            "traceText": "OTHS NN1/Need Meal for Lunch",
            "departmentCode": "ZSV",
            "departmentName": "CRS Service Requests",
            "traceTimestamp": "",
            "isResolved": false
          }
        ],
        "checkInDate": "2019-09-25",
        "checkOutDate": "2019-09-27",
        "unresolvedTasksExists": true
      }
    }
  }
}
