{
	"request": {
		"urlPattern": "\/fdkservices\/v1\/rooms\/fetchStatusInfo\/(.*)",
		"method": "GET"
	},
	"response": {
		"status": 200,
		"jsonBody": { 
			"roomStatusList": [
		{
		  "features": [
			{
			  "code": "string",
			  "description": "string"
			}
		  ],
		  "frontOfficeStatus": "string",
		  "houseKeepingStatus": "string",
		  "reservationFeatures": [
			{
			  "code": "string",
			  "description": "string",
			  "matched": false,
			  "type": "string"
			}
		  ],
		  "roomNumber": "string",
		  "roomStatus": "string",
		  "roomType": "string"
		}
	  ]
		}
    }
}