<?xml version="1.0" encoding="utf-8"?>
<!-- Generator: Adobe Illustrator 18.1.1, SVG Export Plug-In . SVG Version: 6.00 Build 0)  -->
<svg version="1.1" id="Logo" xmlns="http://www.w3.org/2000/svg" xmlns:xlink="http://www.w3.org/1999/xlink" x="0px" y="0px"
	 viewBox="256.2 654.4 612 245.7" enable-background="new 256.2 654.4 612 245.7" xml:space="preserve">
<title>avid_digital_RGB_supplied logo_300x147px</title>
<path fill="#77726D" d="M362.8,873.1c-3.7,0-4.3,0.6-4.3,4.3v16.5c0,3.7,1.2,3.7,3.7,4.3v1.2h-10.4v-1.8c2.5,0,3.7,0,3.7-4.3v-7.4
	h-14.7v7.4c0,3.1,0,3.7,3.7,4.3v1.8h-11.6v-1.8c3.7,0,3.7,0,3.7-4.3v-15.9c0-3.7,0-3.7-3.7-4.3v-1.8h10.4v1.8c-2.5,0-2.5,0-2.5,4.3
	v6.1h12.9v-6.1c0-3.1,0-3.7-2.5-4.3v-1.8h10.4L362.8,873.1L362.8,873.1z M386.7,871.2c7.4,0,13.5,5.5,13.5,13.5
	c0,8.6-6.7,14.7-14.1,14.7c-7.4,0-13.5-5.5-13.5-14.1C372.6,878,378.1,871.2,386.7,871.2L386.7,871.2z M385.5,872.5
	c-4.3,0-8.6,4.3-8.6,11.6c0,7.4,4.3,13.5,9.8,13.5c4.3,0,8.6-4.3,8.6-11.6C395.9,877.4,391,872.5,385.5,872.5L385.5,872.5z M432,878
	c0-2.5-0.6-3.7-1.2-3.7c0-1.2-1.2-1.2-4.3-1.2h-2.5v20.8c0,3.1,0,3.7,3.7,4.3v1.8h-12.9v-1.8c3.7,0,5.5-0.6,5.5-4.3v-20.2h-3.1
	c-3.1,0-4.3,0.6-4.3,1.2s-0.6,3.1-1.2,4.3h-1.2c0-2.5,0-5.5,0-6.7h1.2c0.6,0,1.2,0,2.5,0h16.5c1.2,0,1.2,0,2.5,0h0.6
	c0,1.2,0,4.9,0,7.4L432,878z M465.7,892.7c0,1.2-1.2,5.5-1.2,6.7h-20.8v-1.8c3.7,0,5.5-0.6,5.5-4.3v-16.5c0-3.7-1.2-4.3-3.7-4.3
	v-1.2h18.4c0,1.2,0,3.7,0,6.1h-1.2c0-1.8-0.6-2.5-1.2-3.7c0-0.6-1.8-1.2-4.3-1.2h-3.1c-1.2,0-0.6,0.6-0.6,1.8v8.6h3.7
	c4.3,0,4.3,0,4.3-2.5h1.2v8h-1.8c-0.6-2.5-0.6-2.5-4.3-2.5h-4.3v6.7c0,2.5,0.6,3.1,1.2,3.1s2.5,0,4.3,0c3.1,0,4.3,0,4.9-1.2
	c0.6-0.6,1.2-1.8,2.5-3.7L465.7,892.7z M498.8,892.7c0,1.2-1.2,5.5-1.2,6.7h-19v-1.8c3.7,0,3.7,0,3.7-4.3v-16.5c0-3.7,0-3.7-3.7-4.3
	v-1.2h11.6v1.2c-3.7,0-5.5,0-5.5,4.3v15.9c0,2.5,0.6,3.1,1.2,3.1c0.6,0,2.5,0,4.3,0c2.5,0,3.7,0,4.3-1.2c0.6-0.6,1.2-1.8,2.5-3.7
	L498.8,892.7z M522.1,878c-0.6-2.5-1.8-5.5-5.5-5.5c-3.1,0-4.3,2.5-4.3,4.3c0,3.1,2.5,4.3,5.5,6.1c3.1,1.2,7.4,3.7,7.4,8.6
	c0,4.3-4.3,8-9.2,8c-1.8,0-3.1,0-4.3-0.6c-1.2,0-1.8-0.6-2.5-0.6c0-1.2-0.6-4.3-1.2-6.7h1.2c0.6,2.5,2.5,6.7,6.7,6.7
	c3.1,0,4.9-1.8,4.9-4.9c0-3.1-2.5-4.3-5.5-6.1c-3.1-1.2-6.7-3.7-6.7-8.6c0-4.3,3.1-7.4,8.6-7.4c1.8,0,3.7,0,5.5,1.2
	c0,1.2,0,3.1,0.6,5.5H522.1z M577.2,882.3c-3.1,0-3.7,1.2-4.9,3.1c-1.2,1.2-2.5,3.1-3.7,5.5c1.8,1.8,5.5,5.5,6.7,8.6l0,0
	c-2.5,0-4.3-1.2-4.9-1.8c-0.6-0.6-2.5-2.5-3.7-4.3c-3.1,4.3-5.5,5.5-8.6,5.5c-5.5,0-8.6-4.3-8.6-7.4c0-4.3,2.5-5.5,6.1-8
	c-1.8-1.8-3.1-3.1-3.1-5.5c0-4.3,3.1-6.7,6.7-6.7c3.1,0,6.1,2.5,6.1,5.5c0,1.8-0.6,3.1-1.8,3.7c-0.6,0.6-1.8,1.2-3.1,2.5
	c1.2,1.2,4.3,3.7,6.7,6.1c1.2-1.2,1.8-3.1,2.5-4.3c0.6-1.8,0.6-2.5-2.5-2.5v-0.6h9.2L577.2,882.3L577.2,882.3z M558.2,896.4
	c3.1,0,5.5-1.8,6.7-3.7c-2.5-2.5-4.3-4.9-8.6-8c-2.5,1.8-4.3,4.3-4.3,5.5C552.7,894.5,556.4,896.4,558.2,896.4L558.2,896.4z
	 M558.8,873.1c-2.5,0-3.1,1.8-3.1,4.3c0,2.5,1.2,3.7,4.3,5.5c1.8-1.2,3.1-3.1,3.1-4.9C562.5,874.9,561.3,873.1,558.8,873.1
	L558.8,873.1z M623.2,899.4h-1.2c-3.1,0-4.3-1.2-6.7-4.3c-1.2-2.5-3.1-4.3-4.3-6.1c-0.6-1.2-1.2-1.2-3.7-1.2h-1.8v6.1
	c0,3.7,0,4.3,3.7,4.3v1.8h-10.4v-1.8c3.7,0,3.7,0,3.7-4.3V878c0-3.7,0-3.7-3.7-4.3v-1.2h11c3.1,0,4.9,0.6,6.7,1.2
	c1.8,1.2,3.1,3.1,3.1,5.5c0,3.7-2.5,5.5-5.5,7.4c0.6,1.2,2.5,4.3,3.7,6.1c1.2,2.5,2.5,3.1,3.1,4.3c1.2,1.2,2.5,1.8,3.1,1.8
	L623.2,899.4z M607.8,885.3c2.5,0,3.7,0,4.3-1.2c1.2-1.2,2.5-3.1,2.5-4.9c0-4.3-3.1-6.1-6.1-6.1c-1.2,0-1.8,0-2.5,0c0,0,0,0.6,0,1.8
	v9.8L607.8,885.3L607.8,885.3z M653.8,892.7c0,1.2-1.2,5.5-1.2,6.7h-20.8v-1.8c3.7,0,5.5-0.6,5.5-4.3v-16.5c0-3.7-1.2-4.3-3.7-4.3
	v-1.2h18.4c0,1.2,0,3.7,0,6.1h-1.2c0-1.8-0.6-2.5-1.2-3.7c0-0.6-1.8-1.2-4.3-1.2h-3.1c-1.2,0-0.6,0.6-0.6,1.8v8.6h3.7
	c4.3,0,4.3,0,4.3-2.5h1.2v8h-1.2c-0.6-2.5-0.6-2.5-4.3-2.5h-4.9v6.7c0,2.5,0.6,3.1,1.2,3.1s2.5,0,4.3,0c3.1,0,4.3,0,4.9-1.2
	c0.6-0.6,1.2-1.8,2.5-3.7L653.8,892.7z M678.9,878c-0.6-2.5-1.8-5.5-5.5-5.5c-3.1,0-4.3,2.5-4.3,4.3c0,3.1,2.5,4.3,5.5,6.1
	c3.1,1.2,7.4,3.7,7.4,8.6c0,4.3-4.3,8-9.2,8c-1.8,0-3.1,0-4.3-0.6c-1.2,0-1.8-0.6-2.5-0.6c0-1.2-0.6-4.3-1.2-6.7h1.2
	c0.6,2.5,2.5,6.7,6.7,6.7c3.1,0,4.9-1.8,4.9-4.9c0-3.1-2.5-4.3-5.5-6.1c-3.1-1.2-6.7-3.7-6.7-8.6c0-4.3,3.1-7.4,8.6-7.4
	c1.8,0,3.7,0,5.5,1.2c0,1.2,0,3.1,0.6,5.5H678.9z M705.9,871.2c7.4,0,13.5,5.5,13.5,13.5c0,8.6-6.7,14.7-14.1,14.7
	s-13.5-5.5-13.5-14.1C692.4,878,697.3,871.2,705.9,871.2L705.9,871.2z M705.9,872.5c-4.3,0-8.6,4.3-8.6,11.6
	c0,7.4,4.3,13.5,9.8,13.5c4.3,0,8.6-4.3,8.6-11.6C715.7,877.4,710.8,872.5,705.9,872.5L705.9,872.5z M753.6,899.4h-1.2
	c-3.1,0-4.3-1.2-6.7-4.3c-1.2-2.5-3.1-4.3-4.3-6.1c-0.6-1.2-1.2-1.2-3.7-1.2h-1.8v6.1c0,3.7,1.2,4.3,3.7,4.3v1.8h-10.4v-1.8
	c3.7,0,3.7,0,3.7-4.3V878c0-3.7,0-3.7-3.7-4.3v-1.2h11c3.1,0,4.9,0.6,6.7,1.2c1.8,1.2,3.1,3.1,3.1,5.5c0,3.7-2.5,5.5-5.5,7.4
	c0.6,1.2,2.5,4.3,3.7,6.1c1.2,2.5,2.5,3.1,3.1,4.3c1.2,1.2,2.5,1.8,3.1,1.8L753.6,899.4z M738.3,885.3c2.5,0,3.7,0,4.3-1.2
	c1.2-1.2,2.5-3.1,2.5-4.9c0-4.3-3.1-6.1-6.1-6.1c-1.2,0-1.8,0-1.8,0s0,0.6,0,1.8v9.8L738.3,885.3L738.3,885.3z M782.4,878
	c0-2.5-0.6-3.7-1.2-3.7c-0.6-1.2-1.2-1.2-4.3-1.2h-2.5v20.8c0,3.1,0,3.7,3.7,4.3v1.8h-11.6v-1.8c3.7,0,3.7-0.6,3.7-4.3v-20.2h-2.5
	c-3.1,0-4.3,0.6-4.3,1.2s-0.6,3.1-1.2,4.3H761c0-2.5,0-5.5,0-6.7h0.6c0.6,0,1.2,0,2.5,0h16.5c1.2,0,1.2,0,2.5,0h1.2
	c0,1.2,0,4.9,0,7.4L782.4,878z M807.6,878c-0.6-2.5-1.8-5.5-5.5-5.5c-3.1,0-4.3,2.5-4.3,4.3c0,3.1,2.5,4.3,5.5,6.1
	c3.1,1.2,7.4,3.7,7.4,8.6c0,4.3-4.3,8-9.2,8c-1.8,0-3.1,0-4.3-0.6c-1.2,0-1.8-0.6-2.5-0.6c0-1.2-0.6-4.3-1.2-6.7h1.2
	c0.6,2.5,2.5,6.7,6.7,6.7c3.1,0,4.9-1.8,4.9-4.9c0-3.1-2.5-4.3-5.5-6.1c-3.1-1.2-6.7-3.7-6.7-8.6c0-4.3,3.1-7.4,8.6-7.4
	c1.8,0,3.7,0,5.5,1.2c0,1.2,0,3.1,0.6,5.5H807.6z M411.8,724.8c0,0-14.7-10.4-39.2-10.4c-27,0-33.1,11-33.1,14.7
	c0,2.5,3.1,4.3,3.1,4.3c0-0.6,5.5-14.7,25.7-14.7c22.7,0,36.8,19.6,36.8,19.6s-20.2,56.4-79.6,56.4c-23.9,0-53.3-13.5-53.3-45.3
	c0-50.8,57-89.4,142.1-89.4c15.3,0,66.8,0.6,66.8,25.7c0,19.6-20.2,28.2-42.3,28.2h-11c0.6-1.2,9.8-31.9,9.8-35.5l-34.3,7.4l1.2,4.3
	c0.6,0,4.3-0.6,6.7-0.6c1.2,0,8.6,0,8.6,6.7C420.4,702.8,413.6,723,411.8,724.8 M512.9,780.6c0,2.5-0.6,13.5-15.9,13.5
	c-23.9,0-43.5-26.3-77.2-60.6l3.1-6.1h30.6c0-15.9,43.5-14.7,43.5-42.9c0-23.9-33.1-30-71.1-30c-95.6,0-169.7,41-169.7,98
	c0,14.7,11,50.8,59.4,50.8c62.5,0,97.4-55.1,97.4-56.4c24.5,24.5,51.5,52.1,78.4,52.1c17.2,0,24.5-8.6,24.5-13.5
	C515.9,781.8,513.5,780.6,512.9,780.6 M556.4,683.2c-30,0-74.1,37.4-74.1,75.4c0,5.5,2.5,14.7,14.1,14.7c19.6,0,53.3-28.8,53.3-42.3
	c0-2.5-0.6-5.5-1.8-6.1c0,1.2-19,39.2-42.3,39.2c-8,0-9.8-7.4-9.8-11.6c0-18.4,22.1-60.6,47.8-60.6c8,0,8,4.3,8,4.9
	c0,5.5-14.1,19-31.9,19c-4.3,0-6.7,0-7.4-0.6c0,1.2,1.2,5.5,8.6,5.5c15.9,0,44.7-17.8,44.7-30.6C565,685,561.9,683.2,556.4,683.2
	 M705.9,682.6c-30,0-74.1,38-74.1,75.4c0,5.5,2.5,14.7,14.1,14.7c19.6,0,53.3-28.8,53.3-42.3c0-2.5-0.6-5.5-1.8-6.1
	c0,1.2-19,39.2-41.7,39.2c-8,0-9.8-7.4-9.8-11.6c0-18.4,22.1-60.6,47.2-60.6c8,0,8,4.3,8,4.9c0,5.5-14.1,19-31.9,19
	c-3.7,0-6.7,0-7.4-1.2c0,1.8,1.2,5.5,8.6,5.5c16.5,0,44.7-17.8,44.7-30.6C714.4,684.4,710.8,682.6,705.9,682.6 M578.4,824.7
	c-26.3,0-43.5-8.6-43.5-20.2c0-22.7,54.5-27.6,57-27.6c0.6,0,34.9,9.8,34.9,24.5C627.4,812.4,613.4,824.7,578.4,824.7 M568,754.8
	c0-6.1,53.3-28.8,53.3-47.8c0-6.1-6.1-8.6-6.1-8.6c0,6.7-11.6,34.3-31.2,34.3c-6.1,0-9.8-3.7-9.8-11c0-6.7,14.7-28.8,58.8-28.8
	c5.5,0,8,0,8,0c0,1.2-4.9,10.4-4.9,17.2h4.3c0-2.5,13.5-26.3,14.7-27.6c0,0-2.5,0-9.2,0c-55.1,0-83.9,36.8-83.9,50.2
	c0,8.6,7.4,10.4,12.9,10.4c-0.6,1.2-28.8,19-28.8,19s32.5,9.8,31.9,10.4c0,0.6-56.4,13.5-56.4,36.1c0,9.8,11,21.4,50.2,21.4
	c21.4,0,69.8-7.4,69.8-36.1C640.9,771.4,568,760.4,568,754.8 M723,694.2l0.6,4.3c0,0,4.3-1.8,8-1.8c1.2,0,4.3,0.6,4.3,4.3
	c0,9.2-31.9,71.7-31.9,72.9l15.9-4.9c12.9-32.5,54.5-71.7,65.5-71.7c1.2,0,2.5,0.6,2.5,2.5c0,6.7-27.6,41-33.1,74.7
	c11,0,30.6-10.4,32.5-12.9l-2.5-2.5c0,0-6.1,3.1-9.8,3.1c-0.6,0-3.1,0-3.1-2.5c0-10.4,33.1-52.7,33.1-67.4c0-3.1-1.8-5.5-6.1-5.5
	c-19.6,0-59.4,42.3-60,42.3c0.6,0,15.3-29.4,15.3-39.8v-2.5C751.8,685.6,726.1,694.2,723,694.2 M859.6,669.1c0,0-9.8,1.2-12.9,1.2
	c0,1.2-6.1,11.6-6.7,13.5c-0.6,0.6-2.5,6.1-17.8,6.1l-1.2,3.7h14.7c0,1.2-33.1,67.4-33.1,76c0,2.5,0.6,6.7,8.6,6.7
	c12.9,0,30-11,30.6-11.6l-2.5-2.5c0,0-11.6,6.1-17.2,6.1c-0.6,0-4.3,0.6-4.3-4.3c0-7.4,31.9-69.8,31.9-69.8h15.9l2.5-3.7h-15.9
	L859.6,669.1"/>
</svg>
