{
    "request": {
        "urlPattern": "\/fdkservices\/v1\/comments\/fetchResComments(.*)\\?grsReservationNumber(.*)",
        "method": "GET"
    },
    "response": {
        "status": 200,
        "jsonBody": {
            "comments": [
                {
                    "commentId": 45777,
                    "commentText": "XYZ has payment set up. Don't ask guest for card. Lorem Ipsum dolor sit amet consectetur.For XYZ Automatic payment is scheduled",
                    "commentType": "GENERAL",
                    "guestViewable": false
                },
                {
                    "commentId": 45778,
                    "commentText": "AGH has payment set up. Don't ask guest for card. Lorem Ipsum dolor sit amet consectetur.For AGH payment is already made",
                    "commentType": "RESERVATION",
                    "guestViewable": false
                },
                {
                    "commentId": 45779,
                    "commentText": "YUI has payment set up. Don't ask guest for card. Lorem Ipsum dolor sit amet consectetur.YUI",
                    "commentType": "IN HOUSE",
                    "guestViewable": false
                },
     
                {
                    "commentId": 45780,
                    "commentText": "AC has payment set up. Don't ask guest for card. Lorem Ipsum dolor sit amet consectetur.AC",
                    "commentType": "CASHIER",
                    "guestViewable": false
                },
				{
                    "commentId": 45781,
                    "commentText": "Cashier 1 comments.",
                    "commentType": "CASHIER",
                    "guestViewable": false
                },
				{
                    "commentId": 45782,
                    "commentText": "Cashier 2 comments.",
                    "commentType": "CASHIER",
                    "guestViewable": false
                }				
            ]
        }
    }
}
