{
	"request": {
		"urlPattern": "/fdkservices/v1/guest/observations\\?memberId=(.*)&hotelType=ALL(.*)",
		"method": "GET"
	},
	"response": {
		"status": 200,
		"jsonBody": 
		  [
				{
							"hotelName": "Buckhead Atlanta",
							"hotelCode": "LAXIA",
							"hotelChainCode": "LAXIA",
							"createdTimestamp": "2019-03-19T16:02:35.741",
							"comment": "Testing, Testing, Testing from Monica",
							"createdByUserId": "Monica TedjameMortty",
							"mostHelpfulCount": 0,
							"observationsCount": 1,
							"brandLogo": "holidayinn.svg",
							"commentId": "1"
				}
		  ]
	}
}